{
  "regions": [
    {
      "name": "Demacia",
      "story": "<p>Demacia is a strong, lawful society with a prestigious military history. It values the ideals of justice, honor and duty highly, and its people are fiercely proud. Demacia is a self-sufficient, agrarian society, with abundant, fertile farmland, dense forests that are logged for lumber, and mountains rich with mineral resources. It is inherently defensive and insular, partly in response to frequent attacks from barbarians, raiders and expansionist civilizations. Some suggest that the golden age of Demacia has passed and unless it is able to adapt to a changing world – something many believe it is simply incapable of doing – that its decline is inevitable. Nevertheless, Demacia remains one of the dominant powers in Valoran, and boasts the most elite, well-trained army in all of Runeterra.</p>",
      "crestIcon": "http://universe.leagueoflegends.com/images/demacia_crest_icon.png",
      "coverImageUrl": "http://universe-meeps.leagueoflegends.com/v1/assets/images/factions/demacia_splash.jpg",
      "champions" :[
        { "name": "Garen" }, { "name": "Sona" }, { "name": "Lux" }, { "name": "Jarvan IV" }, { "name": "Lucian" },
        { "name": "Fiora" }, { "name": "Poppy" }, { "name": "Quinn" }, { "name": "Shyvana" }, { "name": "Vayne" },
        { "name": "Xin Zhao" }, { "name": "Galio" }
      ],
      "extras": [
        {
          "url": "http://universe-meeps.leagueoflegends.com/v1/assets/images/factions/image-gallery/demacia-silvermere.jpg",
          "description":"High Silvermere, a city in the rocky highlands of Demacia’s north-west"
        },
        {
          "url": "http://universe-meeps.leagueoflegends.com/v1/assets/images/factions/image-gallery/demacia-citadel.jpg",
          "description":"The Citadel of Dawn, palace of Jarvan III"
        },
        {
          "url": "http://universe-meeps.leagueoflegends.com/v1/assets/images/factions/image-gallery/demacia-hallvalor.jpg",
          "description":"The Hall of Valor, where fallen Demacian Warriors are remembered for their sacrifice"
        },
        {
          "url": "http://universe-meeps.leagueoflegends.com/v1/assets/images/factions/image-gallery/demacia-templelightbringers.jpg",
          "description":"The Temple of the Lightbringers"
        },
        {
          "url": "http://universe-meeps.leagueoflegends.com/v1/assets/images/factions/image-gallery/demacia-grandplaza.jpg",
          "description":"The Grand Plaza of Demacia City, where its rulers are appointed to roars of acclaim from the people"
        }
      ]
    },
    {
      "name": "Zaun",
      "story": "<p>Zaun is a large, undercity district, lying in the deep canyons and valleys threading Piltover. What light reaches below is filtered through fumes leaking from the tangles of corroded pipework and reflected from the stained glass of its industrial architecture. Zaun and Piltover were once united, but are now separate, yet symbiotic societies. Though it exists in perpetual smogged twilight, Zaun thrives, its people vibrant and its culture rich. Piltover’s wealth has allowed Zaun to develop in tandem; a dark mirror of the city above. Many of the goods coming to Piltover find their way into Zaun’s black markets, and hextech inventors who find the restrictions placed upon them in the city above too restrictive often find their dangerous researches welcomed in Zaun. Unfettered development of volatile technologies and reckless industry has rendered whole swathes of Zaun polluted and dangerous. Streams of toxic runoff stagnate in the city’s lower reaches, but even here people find a way to exist and prosper.</p>",
      "crestIcon": "http://universe.leagueoflegends.com/images/zaun_crest_icon.png",
      "coverImageUrl": "http://universe-meeps.leagueoflegends.com/v1/assets/images/factions/zaun_splash.jpg",
      "champions" :[
        { "name": "Jinx" }, { "name": "Ekko" }, { "name": "Twitch" }, { "name": "Blitzcrank" }, { "name": "Dr. Mundo" },
        { "name": "Janna" }, { "name": "Singed" }, { "name": "Viktor" }, { "name": "Warwick" }, { "name": "Zac" }
      ],
      "extras": [
        {
          "url": "http://universe-meeps.leagueoflegends.com/v1/assets/images/factions/image-gallery/zaun-collecttechmaturgy.jpg",
          "description":"Tower of the College of Techmaturgy rising into Piltover"
        },
        {
          "url": "http://universe-meeps.leagueoflegends.com/v1/assets/images/factions/image-gallery/zaun-backstreetdeals.jpg",
          "description":"Backstreet hextech deals"
        },
        {
          "url": "http://universe-meeps.leagueoflegends.com/v1/assets/images/factions/image-gallery/zaun-breatherstation.jpg",
          "description":"Breather Station, entrance to Shimmer Bar below"
        },
        {
          "url": "http://universe-meeps.leagueoflegends.com/v1/assets/images/factions/image-gallery/zaun-bountymarkets.jpg",
          "description":"Boundary Markets thrive where Piltover and Zaun meet"
        },
        {
          "url": "http://universe-meeps.leagueoflegends.com/v1/assets/images/factions/image-gallery/zaun-depths.jpg",
          "description":"Vibrant life teems in Zaun’s depths"
        }
      ]
    },
    {
      "name": "Piltover",
      "story": "<p>Piltover is a thriving, progressive city whose power and influence is on the rise. It is Valoran’s cultural center, where art, craftsmanship, trade and innovation walk hand in hand. Its power comes not through military might, but the engines of commerce and forward thinking. Situated on the cliffs above the district of Zaun and overlooking the ocean, fleets of ships pass through its titanic sea-gates, bringing goods from all over the world. The wealth this generates has given rise to an unprecedented boom in the city’s growth. Piltover has - and still is - reinventing itself as a city where fortunes can be made and dreams can be lived . Burgeoning merchant clans fund development in the most incredible endeavors: grand artistic follies, esoteric hextech research, and architectural monuments to their power. With ever more inventors delving into the emergent lore of hextech, Piltover has become a lodestone for the most skilled craftsmen the world over.</p>",
      "crestIcon": "http://universe.leagueoflegends.com/images/piltover_crest_icon.png",
      "coverImageUrl": "http://universe-meeps.leagueoflegends.com/v1/assets/images/factions/piltover_splash.jpg",
      "champions" :[
        { "name": "Camille" }, { "name": "Caitlyn" }, { "name": "Ezreal" }, { "name": "Jayce" }, { "name": "Orianna" },
        { "name": "Vi" }, { "name": "Ziggs" }, { "name": "Heimerdinger" }
      ],
      "extras": [
        {
          "url": "http://universe-meeps.leagueoflegends.com/v1/assets/images/factions/image-gallery/piltover-zindeloruneterra.jpg",
          "description":"Zindelo’s Incognium Runeterra"
        },
        {
          "url": "http://universe-meeps.leagueoflegends.com/v1/assets/images/factions/image-gallery/piltover-eclipticvaults.jpg",
          "description":"The Ecliptic Vaults, Piltover’s most secure bank"
        },
        {
          "url": "http://universe-meeps.leagueoflegends.com/v1/assets/images/factions/image-gallery/piltover-treasury.jpg",
          "description":"The Piltover Treasury"
        },
        {
          "url": "http://universe-meeps.leagueoflegends.com/v1/assets/images/factions/image-gallery/piltover-entrancetreasury.jpg",
          "description":"Sidereal Avenue, entrance to Piltover Treasury"
        }
      ]
    },
    {
      "name": "Shadow Isles",
      "story": "<p>The land now known as the Shadow Isles was once a beautiful realm, but it was shattered by a magical cataclysm. Black Mist permanently shrouds the isles and the land itself is tainted, corrupted by malevolent sorcery. Living beings that stand upon the Shadow Isles slowly have their life-force leeched from them, which, in turn, draws the insatiable, predatory spirits of the dead. Those who perish within the Black Mist are condemned to haunt this melancholy land for eternity. Worse, the power of the Shadow Isles is waxing stronger with every passing year, allowing the shades of undeath to extend their range and reap souls all across Runeterra.</p>",
      "crestIcon": "http://universe.leagueoflegends.com/images/shadow_isles_crest_icon.png",
      "coverImageUrl": "http://universe-meeps.leagueoflegends.com/v1/assets/images/factions/shadow-isles_splash.jpg",
      "champions" :[
        { "name": "Hecarim" }, { "name": "Karthus" }, { "name": "Thresh" }, { "name": "Kalista" }, { "name": "Mordekaiser" },
        { "name": "Yorick" }, { "name": "Maokai" }, { "name": "Elise" }, { "name": "Evelynn" }
      ],
      "extras": [
        {
          "url": "http://universe-meeps.leagueoflegends.com/v1/assets/images/factions/image-gallery/shadow-isles-radiancealignments.jpg",
          "description":"The Radiance of Alignments begins the journey to enlightenment"
        },
        {
          "url": "http://universe-meeps.leagueoflegends.com/v1/assets/images/factions/image-gallery/shadow-isles-athenaeumlight.jpg",
          "description":"The Athenaeum of Light, wherein the litanies of the Sentinels are graven on wall and floor"
        },
        {
          "url": "http://universe-meeps.leagueoflegends.com/v1/assets/images/factions/image-gallery/shadow-isles-celestialvault.jpg",
          "description":"The Celestial Vault, unlocked by the revelations of the Lunatropic Demisphere"
        },
        {
          "url": "http://universe-meeps.leagueoflegends.com/v1/assets/images/factions/image-gallery/shadow-isles-vaults.jpg",
          "description":"The sundered Vaults of Arcana, a confluence of dark magic"
        },
        {
          "url": "http://universe-meeps.leagueoflegends.com/v1/assets/images/factions/image-gallery/shadow-isles-hallfconjunction.jpg",
          "description":"The Hall of Conjunction, through which all seekers must pass"
        },
        {
          "url": "http://universe-meeps.leagueoflegends.com/v1/assets/images/factions/image-gallery/shadow-isles-crator.jpg",
          "description":"The crater that was once a grand gallery of ancient artifacts at the heart of the Shadow Isles"
        }
      ]
    },
    {
      "name": "Mount Targon",
      "story": "<p>Mount Targon is the mightiest peak in Runeterra, a towering peak of sun-baked rock amid a range of summits unmatched in scale anywhere else in the world. Located far from civilization, Mount Targon is utterly remote and all but impossible to reach save by the most determined seeker. Many legends cling to Mount Targon, and, like any place of myth, it is a beacon to dreamers, madmen and questors of adventure. Some of these brave souls attempt to scale the impossible mountain, perhaps seeking wisdom or enlightenment, perhaps chasing glory or some soul-deep yearning to witness its summit. The ascent is all but impossible, and those hardy few who somehow survive to reach the top almost never speak of what they have seen. Some return with a haunted, empty look in their eyes, others changed beyond all recognition, imbued by an Aspect of unearthly, inhuman power with a destiny few mortals can comprehend.</p>",
      "crestIcon": "http://universe.leagueoflegends.com/images/mt_targon_crest_icon.png",
      "coverImageUrl": "http://universe-meeps.leagueoflegends.com/v1/assets/images/factions/mount-targon_splash.jpg",
      "champions" :[
        { "name": "Leona" }, { "name": "Pantheon" }, { "name": "Aurelion Sol" }, { "name": "Taric" }, { "name": "Diana" }
      ],
      "extras": []
    },
    {
      "name": "Shurima",
      "story": "<p>The empire of Shurima was once a thriving civilization that spanned a vast desert. After an era of growth and prosperity, the fall of its gleaming capital left the empire in ruins. Over millennia, tales of Shurima’s glorious city became myth and religion among the descendants of the scattered survivors. <br />Most of the nomadic inhabitants of Shurima search for basic sustenance in an unforgiving land. Some defend small outposts built around a few oases. Others hunt buried riches among the ruins of the fallen empire, or obtain mercenary work, taking coin for their deeds before disappearing back into the sands. Now, the tribes are stirred by whispers from the heart of the desert: the city of Shurima has risen again.</p>",
      "crestIcon": "http://universe.leagueoflegends.com/images/shurima_crest_icon.png",
      "coverImageUrl": "http://universe-meeps.leagueoflegends.com/v1/assets/images/factions/shurima_splash.jpg",
      "champions" :[
        { "name": "Amumu" }, { "name": "Azir" }, { "name": "Nasus" }, { "name": "Rammus" }, { "name": "Renekton" },
        { "name": "Sivir" }, { "name": "Skarner" }, { "name": "Taliyah" }, { "name": "Xerath" }
      ],
      "extras": [
        {
          "url": "http://universe-meeps.leagueoflegends.com/v1/assets/images/factions/image-gallery/shurima-vekaurastreets.jpg",
          "description":"The rebuilt sun disc over the streets of Nashramae"
        },
        {
          "url": "http://universe-meeps.leagueoflegends.com/v1/assets/images/factions/image-gallery/shurima-reborn.jpg",
          "description":"The sands recede, and Shurima is reborn."
        },
        {
          "url": "http://universe-meeps.leagueoflegends.com/v1/assets/images/factions/image-gallery/shurima-risen.jpg",
          "description":"Shurima, risen from the sands to bathe in the sun’s light once more"
        },
        {
          "url": "http://universe-meeps.leagueoflegends.com/v1/assets/images/factions/image-gallery/shurima-homecoming.jpg",
          "description":"Shurima’s people return to their ancestral home."
        },
        {
          "url": "http://universe-meeps.leagueoflegends.com/v1/assets/images/factions/image-gallery/shurima-ruins.jpg",
          "description":"The ruins of Shurima, its once grand palaces and citadels cast to ruin"
        },
        {
          "url": "http://universe-meeps.leagueoflegends.com/v1/assets/images/factions/image-gallery/shurima-hierophant.jpg",
          "description":"The Daughter of Setaka, Ascended Hierophant of Zuretta"
        }
      ]
    },
    {
      "name": "Bilgewater",
      "story": "<p>Bilgewater is a haven for smugglers, marauders, and the unscrupulous, where fortunes are made and ambitions shattered in the blink of an eye. For those fleeing justice, debt, or persecution, it is a city of new beginnings; no one on the twisted streets of Bilgewater cares about your past. It’s a melting pot of cultures, races, and creeds, alive with activity at all hours.<br />While incredibly dangerous, Bilgewater is also ripe with opportunity, free from the shackles of government, regulation, and moral constraints. If you have the coin, almost anything can be purchased in Bilgewater, from outlawed hextech to the favor of local crime lords. Nevertheless, come daybreak, the unwary are found floating in the harbor, their purses empty and their throats slit.</p>",
      "crestIcon": "http://universe.leagueoflegends.com/images/bilgewater_crest_icon.png",
      "coverImageUrl": "http://universe-meeps.leagueoflegends.com/v1/assets/images/factions/bilgewater_splash.jpg",
      "champions" :[
        { "name": "Gangplank" }, { "name": "Graves" }, { "name": "Illaoi" }, { "name": "Miss Fortune" }, { "name": "Nautilus" },
        { "name": "Twisted Fate" }
      ],
      "extras": [
        {
          "url": "http://universe-meeps.leagueoflegends.com/v1/assets/images/factions/image-gallery/bilgewater-approach.jpg",
          "description":"Butcher’s Bridge, the gateway between the Slaughter Docks and the city’s most notorious slums"
        },
        {
          "url": "http://universe-meeps.leagueoflegends.com/v1/assets/images/factions/image-gallery/bilgewater-waterways.jpg",
          "description":"The approaches to Bilgewater are heavily defended by towers atop the cliffs and the bay’s treacherous waters."
        },
        {
          "url": "http://universe-meeps.leagueoflegends.com/v1/assets/images/factions/image-gallery/bilgewater-homes.jpg",
          "description":"The city is threaded with a maze of waterways and hidden inlets."
        },
        {
          "url": "http://universe-meeps.leagueoflegends.com/v1/assets/images/factions/image-gallery/bilgewater-butchersbridge.jpg",
          "description":"The ocean offers its bounty for construction materials to provide homes for the city’s residents."
        }
      ]
    },
    {
      "name": "Ionia",
      "story": "<p>Ionia is a land of unspoiled beauty and natural magic. Its inhabitants, living in scattered settlements across this massive island continent, are a spiritual people who seek to live in harmony and balance with the world. There are many orders and sects across Ionia, each following their own (often conflicting) paths and ideals. Self-sufficient and isolationist, Ionia has remained largely neutral in the wars that have ravaged Valoran over the centuries – until it was invaded by Noxus. This brutal conflict and occupation has forced Ionia to reassess its place in the world. How it reacts and the future path Ionia will follow is as yet undetermined, but will be of great importance to Runeterra.</p>",
      "crestIcon": "http://universe.leagueoflegends.com/images/iona_crest_icon.png",
      "coverImageUrl": "http://universe-meeps.leagueoflegends.com/v1/assets/images/factions/ionia_splash.jpg",
      "champions" :[
        { "name": "Ahri" }, { "name": "Akali" }, { "name": "Irelia" }, { "name": "Jhin" }, { "name": "Yasuo" },
        { "name": "Karma" }, { "name": "Kennen" }, { "name": "Lee Sin" }, { "name": "Master Yi" }, { "name": "Shen" },
        { "name": "Soraka" }, { "name": "Syndra" }, { "name": "Varus" }, { "name": "Zed" }, { "name": "Wukong" }

      ],
      "extras": [
        {
          "url": "http://universe-meeps.leagueoflegends.com/v1/assets/images/factions/image-gallery/ionia-placidiumnavori.jpg",
          "description":"The Placidium of Navori"
        },
        {
          "url": "http://universe-meeps.leagueoflegends.com/v1/assets/images/factions/image-gallery/ionia-entrancehirana.jpg",
          "description":"Entrance to the great monastery at Hirana"
        }
      ]
    },
    {
      "name": "Freljord",
      "story": "<p>The Freljord is a harsh and unforgiving land. Proud and fiercely independent, its people are born warriors, with a strong raiding culture. While there are many individual tribes within the Freljord, the battle lines are being drawn in a three-way civil war that will determine the future for them all. One tribe unflinchingly honors the traditions that have ensured its survival; another follows the dream of a united future, as foretold by a young idealist; while the third worships the power of an enigmatic sorceress.</p>",
      "crestIcon": "http://universe.leagueoflegends.com/images/freljord_crest_icon.png",
      "coverImageUrl": "http://universe-meeps.leagueoflegends.com/v1/assets/images/factions/freljord_splash.jpg",
      "champions" :[
        { "name": "Ashe" }, { "name": "Lissandra" }, { "name": "Sejuani" }, { "name": "Tryndamere" }, { "name": "Braum" },
        { "name": "Nunu" }, { "name": "Olaf" }, { "name": "Anivia" }, { "name": "Trundle" }, { "name": "Udyr" },
        { "name": "Volibear" }
      ],
      "extras": [
        {
          "url": "http://universe-meeps.leagueoflegends.com/v1/assets/images/factions/image-gallery/freljord-frostguard.jpg",
          "description":"Frostguard Citadel"
        },
        {
          "url": "http://universe-meeps.leagueoflegends.com/v1/assets/images/factions/image-gallery/freljord-icebornfortress.jpg",
          "description":"The ruined Fortress of the Iceborn"
        },
        {
          "url": "http://universe-meeps.leagueoflegends.com/v1/assets/images/factions/image-gallery/freljord-rakelstake.jpg",
          "description":"The pilgrim site of Rakelstake"
        },
        {
          "url": "http://universe-meeps.leagueoflegends.com/v1/assets/images/factions/image-gallery/freljord-glaserport.jpg",
          "description":"The Ice-locked harbor of Glaserport, with its chained wolfships"
        },
        {
          "url": "http://universe-meeps.leagueoflegends.com/v1/assets/images/factions/image-gallery/freljord-cavernshowling.jpg",
          "description":"The frozen caverns of the Howling Abyss"
        },
        {
          "url": "http://universe-meeps.leagueoflegends.com/v1/assets/images/factions/image-gallery/freljord-gatewayhowling.jpg",
          "description":"Warded gateway to the Howling Abyss"
        },
        {
          "url": "http://universe-meeps.leagueoflegends.com/v1/assets/images/factions/image-gallery/freljord-vaults.jpg",
          "description":"Vaults of the Iceborn beneath Frosthorn Peak"
        }
      ]
    },
    {
      "name": "Noxus",
      "story": "<p>Noxus is a powerful empire with a fearsome reputation. To those beyond its borders, Noxus is brutal, expansionist and threatening, yet those who look beyond its warlike exterior see an unusually inclusive society, where the strengths and talents of its people are respected and cultivated. Its people were once a fierce reaver culture until they stormed the ancient city that now lies at the heart of their empire. Under threat from all sides, they aggressively took the fight to their enemies, pushing their borders outward with every passing year. This struggle for survival has made the Noxians a deeply proud people who value strength above all, though that strength can manifest by many different means. Anyone can rise to a position of power and respect within Noxus if they display the necessary aptitude, regardless of social standing, background, homeland, or wealth.</p>",
      "crestIcon": "http://universe.leagueoflegends.com/images/noxus_crest_icon.png",
      "coverImageUrl": "http://universe-meeps.leagueoflegends.com/v1/assets/images/factions/noxus_splash.jpg",
      "champions" :[
        { "name": "Cassiopeia" }, { "name": "Darius" }, { "name": "Draven" }, { "name": "Katarina" }, { "name": "Kled" },
        { "name": "Leblanc" }, { "name": "Riven" }, { "name": "Sion" }, { "name": "Swain" }, { "name": "Talon" },
        { "name": "Urgot" }, { "name": "Vladmir" }
      ],
      "extras": [
        {
          "url": "http://universe-meeps.leagueoflegends.com/v1/assets/images/highlights/noxus-culture.jpg",
          "title":"Culturally Inclusive",
          "description":"As Noxus expands and defeats neighboring cultures and cities, it offers the conquered people a choice; swear loyalty to Noxus and be judged solely on your worth, or be destroyed. This is not subterfuge or any kind of ruse; the Noxians are as good as their word, and many who have embraced their conquerors' way of life find their prospects greatly improved. But those who refuse to bend the knee are crushed without mercy."
        },
        {
          "url": "http://universe-meeps.leagueoflegends.com/v1/assets/images/highlights/noxus-armies.jpg",
          "title":"The Armies of Noxus",
          "description":"The armies of Noxus appear to be little more than barbarous hosts of individual warbands, but this belies the discipline and sophistication required to make such a formation viable. The success of Noxian armies is undeniable, and their very diversity is testament to their effectiveness. Conquered peoples that swear loyalty to Noxus become part of its armies and add their unique strengths to the empire’s war efforts. Thus, regimentation and uniformity are anathema to the Noxian way of life, and each warband is celebrated for the many and varied methods of war it brings to bear."
        },
        {
          "url": "http://universe-meeps.leagueoflegends.com/v1/assets/images/highlights/noxus-bastion.jpg",
          "title":"The Immortal Bastion",
          "description":"Situated in the heartlands of what would later become their empire, the Immortal Bastion was the first citadel to fall to the Noxian tribes. Said to have been built by a dread sorcerer in a far distant age, the Noxians made the captured city their capital and it has remained so to this day. In the centuries since then, as Noxian armies conquer ever more territories, the city has sprawled far beyond its battle-scarred walls. Old Noxus retains its forbidding character, but the structures beyond its fortifications grow ever more varied as the diverse people of the empire are drawn to the capital by the lure of wealth and glory."
        },
        {
          "url": "http://universe-meeps.leagueoflegends.com/v1/assets/images/highlights/noxus-noxtoraa.jpg",
          "title":"Noxtoraa",
          "description":"Whether a city is taken by force or willingly swears fealty to Noxus, its warmasons immediately set to work in stamping the empire’s authority upon the newly acquired territory. Gateways of dark stone quarried from the mountains surrounding the capital are raised on every road leading to the city. Known throughout Valoran as Noxtoraa (gateway to Noxus in Ur-Nox), these towering structures leave approaching travellers in no doubt as to who holds the reins of power."
        }
      ]
    },
    {
      "name": "Void",
      "story": "<p>The Void is a nightmarish dimension said to exist outside space and time, where terrifying living weapons were wrought to win an ancient and long-since ended war. No-one truly understands how the Void came into existence, but tales of its terrible denizens have wormed their way into the dream consciousness of almost every culture’s legends, creation myths and dark folktales. Those few scattered grimoires and madmen that dare speak of the Void at all, speak of it as an infinite realm of unfettered creation, tortured landscapes of crazed organic machinery, magical weapon-looms and mountainous flesh-forges. None have yet ventured into the Void and lived, for mortals would almost certainly be consumed and woven into the endless process of creation.<br />In places where the mystical barriers between Runeterra and the Void have been worn thin, the air feels charged, and fantastical occurrences are the norm. Rivers run with vibrant colors, flowers bloom with incredible perfumes and living beings experience psychedelic visions and surges in magical power. For a time, such places are wondrous and brimming with miracles, but soon the landscape is twisted into new and deadly forms, and if the Void is able to consume enough biomass to survive, it can grow and evolve into something ferocious and terrifying.</p>",
      "crestIcon": "http://universe.leagueoflegends.com/images/void_crest_icon.png",
      "coverImageUrl": "http://universe-meeps.leagueoflegends.com/v1/assets/images/factions/void_splash.jpg",
      "champions" :[
        { "name": "Cho'gath" }, { "name": "Kassadin" }, { "name": "Kha'zix" }, { "name": "Kog'maw" }, { "name": "Malzahar" },
        { "name": "Rek'sai" }, { "name": "Vel'koz" }
      ],
      "extras": [ ]
    },
    {
      "name": "Bandle City",
      "story": "<p>Opinions differ as to where exactly the land of the Yordles is to be found. Some maintain these fey creatures live far to the southeast, beyond a range of impassable mountains. Others claim the Yordles live under grassy green hills or deep in the hearts of impenetrable forests. Perhaps some of these tales are true or maybe none, for no expedition mounted to find the Yordle homeland has ever located it. Which is not to say that no one has visited the land of Yordles, for many claim to have travelled through unseen portals into a land of fey enchantment populated by diminutive creatures of mischief. In Bandle City every sensation is heightened for non-Yordles; colors are incredibly vivid,the food and drink intoxicates the senses for years and, once tasted, will never be forgotten. The sunlight is eternally golden, the waters crystal clear, and every harvest brings fruitful bounty. It is also a place of unfettered magic, where the incautious can be led astray by its myriad wonders and end up lost in a dream until they drop dead of hunger and thirst. Those who claim to have travelled to Bandle City speak of a timeless quality, which may explain why many such taletellers appear to have aged tremendously or, in fact, never return at all.</p>",
      "crestIcon": "http://universe.leagueoflegends.com/images/bandle_city_crest_icon.png",
      "coverImageUrl": "http://universe-meeps.leagueoflegends.com/v1/assets/images/factions/bandle-city_splash.jpg",
      "champions" :[
        { "name": "Corki" }, { "name": "Lulu" }, { "name": "Rumble" }, { "name": "Teemo" }, { "name": "Tristana" },
        { "name": "Veigar" }
      ],
      "extras": [ ]
    }
  ]
}